{
  "tagName": "Divider",
  "pkgId": "vant",
  "type": "object",
  "properties": {
    "name": {
      "title": "分割线",
      "description": "组件名称"
    },
    "tagName": {
      "title": "Divider",
      "description": "组件标签"
    },
    "advanceProps": {
      "title": "高级属性",
      "description": "高级属性",
      "type": "object",
      "properties": {
        "condition": {
          "title": "是否渲染",
          "description": "是否渲染",
          "type": "string",
          "valueType": "switch",
          "default": true
        }
      }
    },
    "hasChild": {
      "type": "boolean",
      "const": true,
      "title": "支持调用子组件",
      "description": "true:支持;false:不支持"
    },
    "props": {
      "type": "object",
      "title": "组件属性",
      "description": "组件属性",
      "required": [],
      "properties": {
        "dashed": {
          "enum": [],
          "type": [
            "boolean"
          ],
          "title": "dashed",
          "option": true,
          "valueType": "switch",
          "default": false
        },
        "hairline": {
          "enum": [],
          "type": [
            "boolean"
          ],
          "title": "hairline",
          "option": true,
          "valueType": "switch",
          "default": false
        },
        "content-position": {
          "enum": [],
          "type": [
            "string"
          ],
          "title": "content-position",
          "option": true,
          "valueType": "text",
          "default": ""
        }
      }
    },
    "pkgId": {
      "title": "vant",
      "description": "组件库包名称"
    },
    "version": {
      "title": "4.0.2",
      "description": "组件库包版本"
    },
    "protoProps": {
      "type": "object",
      "title": "原生属性",
      "required": [],
      "properties": {
        "id": {
          "type": "string",
          "title": "唯一id",
          "valueType": "text",
          "description": "元素唯一标识"
        },
        "ref": {
          "type": "string",
          "title": "ref",
          "valueType": "text",
          "description": "组件ref名称，可在this.[ref名称]来获取组件实例this对象"
        },
        "style": {
          "type": "object",
          "title": "内联样式",
          "valueType": "object",
          "description": "组件内联样式(JSON格式)"
        },
        "className": {
          "type": "string",
          "title": "样式名",
          "valueType": "textarea",
          "description": "组件样式名"
        }
      },
      "description": "原生属性"
    },
    "lastModifyTime": {
      "type": "string",
      "title": "最后一次修改时间",
      "description": "2022-12-13"
    }
  },
  "lastModifyTime": "2022-12-13",
  "version": "4.0.2",
  "required": [
    null
  ],
  "description": "用于将内容分隔为多个区域。",
  "groupKey": "Display Components",
  "groupName": "展示组件",
  "isHidden": 0,
  "framework": "vue"
}