{
  "tagName": "NumberKeyboard",
  "pkgId": "vant",
  "type": "object",
  "properties": {
    "name": {
      "title": "数字键盘",
      "description": "组件名称"
    },
    "tagName": {
      "title": "NumberKeyboard",
      "description": "组件标签"
    },
    "advanceProps": {
      "title": "高级属性",
      "description": "高级属性",
      "type": "object",
      "properties": {
        "condition": {
          "title": "是否渲染",
          "description": "是否渲染",
          "type": "string",
          "valueType": "switch",
          "default": true
        }
      }
    },
    "hasChild": {
      "type": "boolean",
      "const": true,
      "title": "支持调用子组件",
      "description": "true:支持;false:不支持"
    },
    "props": {
      "type": "object",
      "title": "组件属性",
      "description": "组件属性",
      "required": [],
      "properties": {
        "show": {
          "enum": [],
          "type": [
            "boolean"
          ],
          "title": "show",
          "option": true,
          "valueType": "switch",
          "default": false
        },
        "title": {
          "enum": [],
          "type": [
            "string"
          ],
          "title": "title",
          "option": true,
          "valueType": "text",
          "default": ""
        },
        "theme": {
          "enum": [],
          "type": [
            "string"
          ],
          "title": "theme",
          "option": true,
          "valueType": "text",
          "default": ""
        },
        "maxlength": {
          "enum": [],
          "type": [
            "number"
          ],
          "title": "maxlength",
          "option": false,
          "valueType": "digit",
          "default": 0
        },
        "transition": {
          "enum": [],
          "type": [
            "boolean"
          ],
          "title": "transition",
          "option": true,
          "valueType": "switch",
          "default": false
        },
        "z-index": {
          "enum": [],
          "type": [
            "number"
          ],
          "title": "z-index",
          "option": false,
          "valueType": "digit",
          "default": 0
        },
        "extra-key": {
          "enum": [],
          "type": [
            "string"
          ],
          "title": "extra-key",
          "option": true,
          "valueType": "text",
          "default": ""
        },
        "close-button-text": {
          "enum": [],
          "type": [
            "string"
          ],
          "title": "close-button-text",
          "option": true,
          "valueType": "text",
          "default": ""
        },
        "close-button-loading": {
          "enum": [],
          "type": [
            "boolean"
          ],
          "title": "close-button-loading",
          "option": true,
          "valueType": "switch",
          "default": false
        },
        "show-delete-key": {
          "enum": [],
          "type": [
            "boolean"
          ],
          "title": "show-delete-key",
          "option": true,
          "valueType": "switch",
          "default": false
        },
        "blur-on-close": {
          "enum": [],
          "type": [
            "boolean"
          ],
          "title": "blur-on-close",
          "option": true,
          "valueType": "switch",
          "default": false
        },
        "hide-on-click-outside": {
          "enum": [],
          "type": [
            "boolean"
          ],
          "title": "hide-on-click-outside",
          "option": true,
          "valueType": "switch",
          "default": false
        },
        "teleport": {
          "enum": [],
          "type": [
            "string"
          ],
          "title": "teleport",
          "option": true,
          "valueType": "text",
          "default": ""
        },
        "safe-area-inset-bottom": {
          "enum": [],
          "type": [
            "boolean"
          ],
          "title": "safe-area-inset-bottom",
          "option": true,
          "valueType": "switch",
          "default": false
        },
        "random-key-order": {
          "enum": [],
          "type": [
            "boolean"
          ],
          "title": "random-key-order",
          "option": true,
          "valueType": "switch",
          "default": false
        }
      }
    },
    "events": {
      "type": "object",
      "title": "交互行为",
      "description": "组件动作事件",
      "required": [],
      "properties": {
        "input": {
          "title": "input",
          "description": "input",
          "type": "object",
          "properties": {
            "name": {
              "description": "函数名",
              "title": "函数名",
              "type": "string"
            }
          }
        },
        "delete": {
          "title": "delete",
          "description": "delete",
          "type": "object",
          "properties": {
            "name": {
              "description": "函数名",
              "title": "函数名",
              "type": "string"
            }
          }
        },
        "close": {
          "title": "close",
          "description": "close",
          "type": "object",
          "properties": {
            "name": {
              "description": "函数名",
              "title": "函数名",
              "type": "string"
            }
          }
        },
        "blur": {
          "title": "blur",
          "description": "blur",
          "type": "object",
          "properties": {
            "name": {
              "description": "函数名",
              "title": "函数名",
              "type": "string"
            }
          }
        },
        "show": {
          "title": "show",
          "description": "show",
          "type": "object",
          "properties": {
            "name": {
              "description": "函数名",
              "title": "函数名",
              "type": "string"
            }
          }
        },
        "hide": {
          "title": "hide",
          "description": "hide",
          "type": "object",
          "properties": {
            "name": {
              "description": "函数名",
              "title": "函数名",
              "type": "string"
            }
          }
        }
      }
    },
    "pkgId": {
      "title": "vant",
      "description": "组件库包名称"
    },
    "version": {
      "title": "4.0.2",
      "description": "组件库包版本"
    },
    "protoProps": {
      "type": "object",
      "title": "原生属性",
      "required": [],
      "properties": {
        "id": {
          "type": "string",
          "title": "唯一id",
          "valueType": "text",
          "description": "元素唯一标识"
        },
        "ref": {
          "type": "string",
          "title": "ref",
          "valueType": "text",
          "description": "组件ref名称，可在this.[ref名称]来获取组件实例this对象"
        },
        "style": {
          "type": "object",
          "title": "内联样式",
          "valueType": "object",
          "description": "组件内联样式(JSON格式)"
        },
        "className": {
          "type": "string",
          "title": "样式名",
          "valueType": "textarea",
          "description": "组件样式名"
        }
      },
      "description": "原生属性"
    },
    "lastModifyTime": {
      "type": "string",
      "title": "最后一次修改时间",
      "description": "2022-12-13"
    }
  },
  "lastModifyTime": "2022-12-13",
  "version": "4.0.2",
  "required": [
    null
  ],
  "description": "虚拟数字键盘，可以配合密码输入框组件或自定义的输入框组件使用。",
  "groupKey": "Form Components",
  "groupName": "表单组件",
  "isHidden": 0,
  "framework": "vue"
}