{
  "tagName": "Sticky",
  "pkgId": "vant",
  "type": "object",
  "properties": {
    "name": {
      "title": "粘性布局",
      "description": "组件名称"
    },
    "tagName": {
      "title": "Sticky",
      "description": "组件标签"
    },
    "advanceProps": {
      "title": "高级属性",
      "description": "高级属性",
      "type": "object",
      "properties": {
        "condition": {
          "title": "是否渲染",
          "description": "是否渲染",
          "type": "string",
          "valueType": "switch",
          "default": true
        }
      }
    },
    "hasChild": {
      "type": "boolean",
      "const": true,
      "title": "支持调用子组件",
      "description": "true:支持;false:不支持"
    },
    "props": {
      "type": "object",
      "title": "组件属性",
      "description": "组件属性",
      "required": [],
      "properties": {
        "position": {
          "enum": [],
          "type": [
            "string"
          ],
          "title": "position",
          "option": true,
          "valueType": "text",
          "default": ""
        },
        "offset-top": {
          "enum": [],
          "type": [
            "string"
          ],
          "title": "offset-top",
          "option": true,
          "valueType": "text",
          "default": ""
        },
        "offset-bottom": {
          "enum": [],
          "type": [
            "string"
          ],
          "title": "offset-bottom",
          "option": true,
          "valueType": "text",
          "default": ""
        },
        "z-index": {
          "enum": [],
          "type": [
            "number"
          ],
          "title": "z-index",
          "option": false,
          "valueType": "digit",
          "default": 0
        }
      }
    },
    "events": {
      "type": "object",
      "title": "交互行为",
      "description": "组件动作事件",
      "required": [],
      "properties": {
        "change": {
          "title": "change",
          "description": "change",
          "type": "object",
          "properties": {
            "name": {
              "description": "函数名",
              "title": "函数名",
              "type": "string"
            }
          }
        },
        "scroll": {
          "title": "scroll",
          "description": "scroll",
          "type": "object",
          "properties": {
            "name": {
              "description": "函数名",
              "title": "函数名",
              "type": "string"
            }
          }
        }
      }
    },
    "pkgId": {
      "title": "vant",
      "description": "组件库包名称"
    },
    "version": {
      "title": "4.0.2",
      "description": "组件库包版本"
    },
    "protoProps": {
      "type": "object",
      "title": "原生属性",
      "required": [],
      "properties": {
        "id": {
          "type": "string",
          "title": "唯一id",
          "valueType": "text",
          "description": "元素唯一标识"
        },
        "ref": {
          "type": "string",
          "title": "ref",
          "valueType": "text",
          "description": "组件ref名称，可在this.[ref名称]来获取组件实例this对象"
        },
        "style": {
          "type": "object",
          "title": "内联样式",
          "valueType": "object",
          "description": "组件内联样式(JSON格式)"
        },
        "className": {
          "type": "string",
          "title": "样式名",
          "valueType": "textarea",
          "description": "组件样式名"
        }
      },
      "description": "原生属性"
    },
    "lastModifyTime": {
      "type": "string",
      "title": "最后一次修改时间",
      "description": "2022-12-13"
    }
  },
  "lastModifyTime": "2022-12-13",
  "version": "4.0.2",
  "required": [
    null
  ],
  "description": "Sticky 组件与 CSS 中 position: sticky 属性实现的效果一致，当组件在屏幕范围内时，会按照正常的布局排列，当组件滚出屏幕范围时，始终会固定在屏幕顶部。",
  "groupKey": "Display Components",
  "groupName": "展示组件",
  "isHidden": 0,
  "framework": "vue"
}